<?xml version="1.0" encoding="UTF-8" standalone="no" ?>
<COLLADA xmlns="http://www.collada.org/2005/11/COLLADASchema" version="1.4.1">
    <asset>
        <contributor>
            <authoring_tool>SketchUp 15.3.331</authoring_tool>
        </contributor>
        <created>2015-10-14T01:57:11Z</created>
        <modified>2015-10-14T01:57:11Z</modified>
        <unit meter="0.0254" name="inch" />
        <up_axis>Z_UP</up_axis>
    </asset>
    <library_visual_scenes>
        <visual_scene id="ID1">
            <node name="SketchUp">
                <instance_geometry url="#ID2">
                    <bind_material>
                        <technique_common>
                            <instance_material symbol="Material2" target="#ID3">
                                <bind_vertex_input semantic="UVSET0" input_semantic="TEXCOORD" input_set="0" />
                            </instance_material>
                            <instance_material symbol="Material3" target="#ID12">
                                <bind_vertex_input semantic="UVSET0" input_semantic="TEXCOORD" input_set="0" />
                            </instance_material>
                            <instance_material symbol="Material4" target="#ID14">
                                <bind_vertex_input semantic="UVSET0" input_semantic="TEXCOORD" input_set="0" />
                            </instance_material>
                        </technique_common>
                    </bind_material>
                </instance_geometry>
                <instance_geometry url="#ID19">
                    <bind_material>
                        <technique_common>
                            <instance_material symbol="Material2" target="#ID21">
                                <bind_vertex_input semantic="UVSET0" input_semantic="TEXCOORD" input_set="0" />
                            </instance_material>
                            <instance_material symbol="Material3" target="#ID26">
                                <bind_vertex_input semantic="UVSET0" input_semantic="TEXCOORD" input_set="0" />
                            </instance_material>
                            <instance_material symbol="Material4" target="#ID12">
                                <bind_vertex_input semantic="UVSET0" input_semantic="TEXCOORD" input_set="0" />
                            </instance_material>
                        </technique_common>
                    </bind_material>
                </instance_geometry>
                <instance_geometry url="#ID29">
                    <bind_material>
                        <technique_common>
                            <instance_material symbol="Material2" target="#ID3">
                                <bind_vertex_input semantic="UVSET0" input_semantic="TEXCOORD" input_set="0" />
                            </instance_material>
                            <instance_material symbol="Material3" target="#ID21">
                                <bind_vertex_input semantic="UVSET0" input_semantic="TEXCOORD" input_set="0" />
                            </instance_material>
                            <instance_material symbol="Material4" target="#ID12">
                                <bind_vertex_input semantic="UVSET0" input_semantic="TEXCOORD" input_set="0" />
                            </instance_material>
                        </technique_common>
                    </bind_material>
                </instance_geometry>
                <instance_geometry url="#ID37">
                    <bind_material>
                        <technique_common>
                            <instance_material symbol="Material2" target="#ID3">
                                <bind_vertex_input semantic="UVSET0" input_semantic="TEXCOORD" input_set="0" />
                            </instance_material>
                            <instance_material symbol="Material3" target="#ID26">
                                <bind_vertex_input semantic="UVSET0" input_semantic="TEXCOORD" input_set="0" />
                            </instance_material>
                            <instance_material symbol="Material4" target="#ID12">
                                <bind_vertex_input semantic="UVSET0" input_semantic="TEXCOORD" input_set="0" />
                            </instance_material>
                        </technique_common>
                    </bind_material>
                </instance_geometry>
                <instance_geometry url="#ID45">
                    <bind_material>
                        <technique_common>
                            <instance_material symbol="Material2" target="#ID3">
                                <bind_vertex_input semantic="UVSET0" input_semantic="TEXCOORD" input_set="0" />
                            </instance_material>
                            <instance_material symbol="Material3" target="#ID21">
                                <bind_vertex_input semantic="UVSET0" input_semantic="TEXCOORD" input_set="0" />
                            </instance_material>
                            <instance_material symbol="Material4" target="#ID12">
                                <bind_vertex_input semantic="UVSET0" input_semantic="TEXCOORD" input_set="0" />
                            </instance_material>
                        </technique_common>
                    </bind_material>
                </instance_geometry>
                <instance_geometry url="#ID53">
                    <bind_material>
                        <technique_common>
                            <instance_material symbol="Material2" target="#ID3">
                                <bind_vertex_input semantic="UVSET0" input_semantic="TEXCOORD" input_set="0" />
                            </instance_material>
                            <instance_material symbol="Material3" target="#ID21">
                                <bind_vertex_input semantic="UVSET0" input_semantic="TEXCOORD" input_set="0" />
                            </instance_material>
                            <instance_material symbol="Material4" target="#ID12">
                                <bind_vertex_input semantic="UVSET0" input_semantic="TEXCOORD" input_set="0" />
                            </instance_material>
                        </technique_common>
                    </bind_material>
                </instance_geometry>
                <instance_geometry url="#ID61">
                    <bind_material>
                        <technique_common>
                            <instance_material symbol="Material2" target="#ID3">
                                <bind_vertex_input semantic="UVSET0" input_semantic="TEXCOORD" input_set="0" />
                            </instance_material>
                            <instance_material symbol="Material3" target="#ID26">
                                <bind_vertex_input semantic="UVSET0" input_semantic="TEXCOORD" input_set="0" />
                            </instance_material>
                            <instance_material symbol="Material4" target="#ID12">
                                <bind_vertex_input semantic="UVSET0" input_semantic="TEXCOORD" input_set="0" />
                            </instance_material>
                        </technique_common>
                    </bind_material>
                </instance_geometry>
                <node id="skp_camera" name="Last Saved SketchUp View">
                    <lookat>144.8707 128.891 481.3318 143.5214 101.8709 -17.93572 0.04980253 0.9972924 -0.05410746</lookat>
                </node>
            </node>
        </visual_scene>
    </library_visual_scenes>
    <library_geometries>
        <geometry id="ID2">
            <mesh>
                <source id="ID8">
                    <float_array id="ID16" count="825">50.5625 142.3287 -45 0 142.3287 -45 25.28125 167.6099 -45 25.28125 167.6099 -45 0 142.3287 -45 50.5625 142.3287 -45 0 142.3287 -45 50.5625 142.3287 -45 25.28125 167.6099 -45 25.28125 71.16435 -45 25.28125 71.16435 -45 25.28125 71.16435 -45 0 192.8912 -45 0 192.8912 -45 0 192.8912 -45 50.5625 192.8912 -45 50.5625 192.8912 -45 50.5625 192.8912 -45 50.5625 0 -45 50.5625 0.5905755 -45 50.5625 0.5905755 -45 50.5625 0 -45 50.5625 0 -45 50.5625 0.5905755 -45 0 0 -45 0 0 -45 0 0 -45 0 192.8912 -45 0 142.3287 -45 0 167.6099 -22.5 0 167.6099 -22.5 0 142.3287 -45 0 192.8912 -45 0 167.6099 -22.5 100.25 167.6099 -45 100.25 167.6099 -45 100.25 167.6099 -45 50.5625 142.3287 -45 50.5625 71.3123 -22.54678 50.5625 0.5905755 -45 50.5625 0.5905755 -45 50.5625 71.3123 -22.54678 50.5625 142.3287 -45 50.5625 71.3123 -22.54678 50.5625 0 0 50.5625 0 -45 50.5625 0 0 50.5625 0 -45 50.5625 0 0 50.5625 0 -45.1875 50.5625 0 -45.1875 50.5625 0 -45.1875 0 0 -45 0 71.16435 -22.5 0 71.16435 -22.5 0 0 -45 0 71.16435 -22.5 25.28125 192.8912 -22.5 50.5625 192.8912 -45 0 192.8912 -45 0 192.8912 -45 50.5625 192.8912 -45 25.28125 192.8912 -22.5 25.28125 192.8912 -22.5 0 142.3287 0 0 142.3287 0 0 142.3287 0 0 192.8912 0 0 192.8912 0 0 192.8912 0 149.9375 192.8912 -45 149.9375 192.8912 -45 149.9375 192.8912 -45 149.9375 142.3287 -45 149.9375 142.3287 -45 149.9375 142.3287 -45 0 0 -45 50.5625 0 -45.1875 0 0 -45.1875 50.5625 0 -45 50.5625 0 -45 0 0 -45 50.5625 0 -45.1875 0 0 -45.1875 0 0 -45.1875 50.5625 142.3287 0 50.5625 142.3287 0 50.5625 142.3287 0 50.5625 0 0 149.9375 0 -45 50.5625 0 -45 149.9375 0 0 198.5508 0 -21.90149 249.8211 0 -45 355.5642 0 -45.1875 50.5625 0 -45.1875 301.3142 0 -23.08658 149.9375 0 -45 50.5625 0 -45 249.8211 0 -45 301.3142 0 -23.08658 355.5642 0 -45.1875 50.5625 0 -45.1875 198.5508 0 -21.90149 149.9375 0 0 50.5625 0 0 198.5508 0 -21.90149 249.8211 0 -45 301.3142 0 -23.08658 355.5642 0 -45.1875 149.9375 0 0 149.9375 0 -45 0 0 0 0 0 0 0 0 0 0 192.8912 0 0 192.8912 0 50.5625 192.8912 0 50.5625 192.8912 0 50.5625 192.8912 0 100.25 192.8912 -22.5 149.9375 192.8912 -45 50.5625 192.8912 -45 50.5625 192.8912 -45 149.9375 192.8912 -45 100.25 192.8912 -22.5 100.25 192.8912 -22.5 100.25 142.3287 -22.5 50.5625 142.3287 -45 149.9375 142.3287 -45 149.9375 142.3287 -45 50.5625 142.3287 -45 100.25 142.3287 -22.5 100.25 142.3287 -22.5 0 0 -45.1875 -50.18583 -50.625 -45.1875 -50.18583 0 -45.1875 355.5642 -50.625 -45.1875 50.5625 0 -45.1875 355.5642 0 -45.1875 355.5642 0 -45.1875 50.5625 0 -45.1875 355.5642 -50.625 -45.1875 0 0 -45.1875 -50.18583 -50.625 -45.1875 -50.18583 0 -45.1875 -50.18583 0 -45.1875 355.5642 -50.625 -45.1875 -50.18583 -50.625 -45.1875 -50.18583 0 0 0 0 -45.1875 -50.18583 0 -45.1875 0 0 -45 0 0 0 0 0 0 -50.18583 0 0 0 0 -45 0 0 -45.1875 -50.18583 0 -45.1875 -50.18583 0 0 50.5625 142.3287 0 50.5625 142.3287 0 244.6448 0 0 244.6448 0 0 244.6448 0 0 355.5642 0 0 355.5642 0 0 355.5642 0 0 50.5625 192.8912 0 100.25 192.8912 -22.5 50.5625 192.8912 -45 50.5625 192.8912 -45 100.25 192.8912 -22.5 50.5625 192.8912 0 149.9375 192.8912 0 149.9375 192.8912 -45 100.25 192.8912 -22.5 100.25 192.8912 -22.5 149.9375 192.8912 -45 149.9375 192.8912 0 149.9375 192.8912 0 199.8793 167.6099 -45 199.8793 167.6099 -45 199.8793 167.6099 -45 149.9375 142.3287 0 149.9375 142.3287 0 149.9375 142.3287 0 198.5508 -50.625 -21.90149 149.9375 -50.625 -45 249.8211 -50.625 -45 -50.18583 -50.625 -45.1875 -50.18583 -50.625 0 149.9375 -50.625 0 355.5642 -50.625 -45.1875 301.3142 -50.625 -23.08658 301.3142 -50.625 -23.08658 355.5642 -50.625 -45.1875 249.8211 -50.625 -45 -50.18583 -50.625 -45.1875 149.9375 -50.625 0 149.9375 -50.625 -45 -50.18583 -50.625 0 198.5508 -50.625 -21.90149 198.5508 -50.625 -21.90149 249.8211 -50.625 -45 149.9375 -50.625 -45 149.9375 -50.625 0 -50.18583 -50.625 0 301.3142 -50.625 -23.08658 149.9375 192.8912 0 100.25 192.8912 -22.5 50.5625 192.8912 0 50.5625 192.8912 0 100.25 192.8912 -22.5 149.9375 192.8912 0 199.8793 192.8912 -22.5 199.8793 192.8912 -22.5 199.8793 192.8912 -22.5 249.8211 192.8912 -45 249.8211 192.8912 -45 249.8211 192.8912 -45 249.8211 142.3287 -45 249.8211 142.3287 -45 249.8211 142.3287 -45 199.8793 142.3287 -22.5 199.8793 142.3287 -22.5 199.8793 142.3287 -22.5 244.6448 -50.625 0 244.6448 -50.625 0 244.6448 -50.625 0 355.5642 -50.625 0 355.5642 -50.625 0 355.5642 -50.625 0 249.8211 192.8912 0 249.8211 192.8912 0 249.8211 192.8912 0 249.8211 192.8912 -45 249.8211 192.8912 -45 249.8211 142.3287 -45 249.8211 142.3287 -45 249.8211 142.3287 0 249.8211 142.3287 0 249.8211 142.3287 0 299.244 192.8912 -22.71875 249.8211 192.8912 -45.4375 299.244 192.8912 -22.71875 249.8211 192.8912 -45.4375 299.244 192.8912 -22.71875 249.8211 192.8912 -45.4375 299.0049 142.3287 -22.60885 299.0049 142.3287 -22.60885 299.0049 142.3287 -22.60885 348.6668 192.8912 0 348.6668 192.8912 0 348.6668 192.8912 0 348.6668 192.8912 -45.4375 348.6668 192.8912 -45.4375 348.6668 192.8912 -45.4375 249.8211 142.3287 -45.4375 348.6668 142.3287 -45.4375 249.8211 142.3287 -45.4375 348.6668 142.3287 -45.4375 348.6668 142.3287 -45.4375 249.8211 142.3287 -45.4375 348.6668 142.3287 0 348.6668 142.3287 0 348.6668 142.3287 0 348.6668 192.8912 -45.4375 249.8211 142.3287 -45.4375 249.8211 192.8912 -45.4375 348.6668 142.3287 -45.4375 348.6668 142.3287 -45.4375 348.6668 192.8912 -45.4375 249.8211 142.3287 -45.4375 249.8211 192.8912 -45.4375</float_array>
                    <technique_common>
                        <accessor count="275" source="#ID16" stride="3">
                            <param name="X" type="float" />
                            <param name="Y" type="float" />
                            <param name="Z" type="float" />
                        </accessor>
                    </technique_common>
                </source>
                <source id="ID9">
                    <float_array id="ID17" count="825">0 0 -1 0 0 -1 0 0 -1 -0 -0 1 -0 -0 1 -0 -0 1 0 0 0 0 0 0 0 0 0 0 0 -1 -0 -0 1 0 0 0 0 0 -1 -0 -0 1 0 0 0 0 0 -1 -0 -0 1 0 0 0 0 0 -1 0 0 -1 -0 -0 1 -0 -0 1 0 0 0 0 0 0 0 0 -1 -0 -0 1 0 0 0 -1 0 0 -1 0 0 -1 0 0 1 -0 -0 1 -0 -0 1 -0 -0 0 0 0 0 0 -1 -0 -0 1 0 0 0 1 -0 -0 1 -0 -0 1 -0 -0 -1 0 0 -1 0 0 -1 0 0 0 0 0 1 -0 -0 1 -0 -0 -1 0 0 -1 0 0 0 0 0 1 -0 -0 -1 0 0 0 0 0 -1 0 0 -1 0 0 1 -0 -0 1 -0 -0 0 0 0 -0 1 -0 -0 1 -0 -0 1 -0 0 -1 0 0 -1 0 0 -1 0 0 0 0 -1 0 0 1 -0 -0 0 0 0 -1 0 0 1 -0 -0 0 0 0 0 0 -1 -0 -0 1 0 0 0 0 0 -1 -0 -0 1 0 0 0 0 1 0 0 1 0 0 1 0 0 1 0 -0 -1 -0 -0 -1 -0 -0 -1 -0 -0 -1 -0 0 0 0 1 -0 -0 -1 0 0 0 0 0 -0 1 -0 -0 1 -0 -0 1 -0 -0 1 -0 -0 1 -0 -0 1 -0 -0 1 -0 -0 1 -0 -0 1 -0 0 -1 0 0 -1 0 0 -1 0 0 -1 0 0 -1 0 0 -1 0 0 -1 0 0 -1 0 0 -1 0 0 0 0 0 0 0 0 0 0 0 0 0 0 0 0 0 0 0 -1 0 0 1 -0 -0 0 0 0 -0 1 -0 0 -1 0 -0 1 -0 0 -1 0 0 0 0 2.860046e-016 1 6.315935e-016 2.860046e-016 1 6.315935e-016 2.860046e-016 1 6.315935e-016 -2.860046e-016 -1 -6.315935e-016 -2.860046e-016 -1 -6.315935e-016 -2.860046e-016 -1 -6.315935e-016 0 0 0 0 -1 0 0 -1 0 0 -1 0 -0 1 -0 -0 1 -0 -0 1 -0 0 0 0 0 0 -1 0 0 -1 0 0 -1 0 0 -1 0 0 -1 0 0 -1 -0 -0 1 -0 -0 1 -0 -0 1 -0 -0 1 -0 -0 1 -0 -0 1 0 0 0 0 0 0 0 0 0 -0 1 -0 -0 1 -0 -0 1 -0 -0 1 -0 -0 1 -0 0 -1 0 0 -1 0 0 -1 0 0 -1 0 0 -1 0 0 0 0 0 -1 0 -0 1 -0 -0 1 -0 0 -1 0 0 0 0 -0 1 -0 0 -1 0 0 0 0 5.720092e-016 1 -0 5.720092e-016 1 -0 5.720092e-016 1 -0 -5.720092e-016 -1 0 -5.720092e-016 -1 0 -5.720092e-016 -1 0 -0 1 -0 -0 1 -0 -0 1 -0 0 -1 0 0 -1 0 0 -1 0 0 0 0 0 0 -1 -0 -0 1 0 0 0 0 -1 0 -0 1 -0 0 0 0 0 -1 0 0 -1 0 0 -1 0 0 -1 0 0 -1 0 0 -1 0 0 -1 0 0 -1 0 -0 1 -0 -0 1 -0 -0 1 -0 -0 1 -0 -0 1 -0 -0 1 -0 -0 1 -0 -0 1 -0 0 0 0 0 0 0 0 0 0 0 0 0 0 0 0 0 0 0 2.860046e-016 1 -6.315935e-016 2.860046e-016 1 -6.315935e-016 2.860046e-016 1 -6.315935e-016 -2.860046e-016 -1 6.315935e-016 -2.860046e-016 -1 6.315935e-016 -2.860046e-016 -1 6.315935e-016 -0 1 -0 0 -1 0 0 0 0 0 0 -1 -0 -0 1 0 0 0 0 0 -1 -0 -0 1 0 0 0 0 -1 0 -0 1 -0 0 0 0 0 -1 0 -0 1 -0 0 0 0 0 -1 0 -0 1 -0 0 0 0 -0 1 -0 0 -1 0 0 0 0 -0 1 -0 0 -1 0 0 -1 0 -0 1 -0 0 -1 0 -0 1 -0 0 0 0 -0 1 -0 -0 1 -0 0 -1 0 0 -1 0 0 0 0 0 0 0 0 -1 0 -0 1 -0 0 0 0 -0 1 -0 0 -1 0 0 0 0 -0 1 -0 0 -1 0 0 0 0 0 -1 0 0 -1 0 -0 1 -0 -0 1 -0 0 0 0 0 0 0 0 -1 0 -0 1 -0 0 0 0 0 0 -1 0 0 -1 0 0 -1 0 0 -1 -0 -0 1 -0 -0 1 -0 -0 1 -0 -0 1</float_array>
                    <technique_common>
                        <accessor count="275" source="#ID17" stride="3">
                            <param name="X" type="float" />
                            <param name="Y" type="float" />
                            <param name="Z" type="float" />
                        </accessor>
                    </technique_common>
                </source>
                <source id="ID11">
                    <float_array id="ID18" count="158">-6.320313 17.79109 0 17.79109 -3.160156 20.95124 -3.160156 8.895544 0 24.1114 -6.320313 24.1114 -6.320313 0 -6.320313 0.07382194 0 0 -24.1114 -5.625 -17.79109 -5.625 -20.95124 -2.8125 -12.53125 20.95124 17.79109 -5.625 8.914037 -2.818347 0.07382194 -5.625 0 -5.625 0 -5.648438 -8.895544 -2.8125 -3.160156 -2.8125 -6.320313 -5.625 -17.79109 0 -24.1114 0 -18.74219 24.1114 -18.74219 17.79109 -6.320313 -5.648438 17.79109 0 -18.74219 -5.625 -18.74219 0 -24.81885 -2.737686 -31.22763 -5.625 -44.44552 -5.648438 -37.66428 -2.885823 -12.53125 -2.8125 -18.74219 -5.625 -6.320312 -5.625 12.53125 -2.8125 6.320313 -5.625 18.74219 -5.625 6.273229 -6.328125 6.273229 0 -44.44552 -6.328125 -44.44552 0 6.273229 -5.648438 6.320313 0 -30.58061 0 -6.320312 0 -12.53125 -2.8125 -6.320312 -5.625 -12.53125 -2.8125 -24.98491 20.95124 18.74219 0 24.81885 -2.737686 31.22763 -5.625 -6.273229 -5.648438 -6.273229 0 44.44552 -5.648438 37.66428 -2.885823 -18.74219 1.52286e-014 -12.53125 -2.8125 -6.320312 1.52286e-014 -24.98491 -2.8125 -31.22763 24.1114 -31.22763 17.79109 24.98491 -2.8125 30.58061 0 44.44552 0 -31.22763 0 31.22763 0 -37.40549 -2.839844 -31.22763 -5.679688 37.37561 -2.826106 -43.58335 0 -43.58335 -5.679688 31.22763 -5.679688 43.58335 -5.679688 43.58335 0 -43.58335 24.1114 -43.58335 17.79109</float_array>
                    <technique_common>
                        <accessor count="79" source="#ID18" stride="2">
                            <param name="S" type="float" />
                            <param name="T" type="float" />
                        </accessor>
                    </technique_common>
                </source>
                <vertices id="ID10">
                    <input semantic="POSITION" source="#ID8" />
                    <input semantic="NORMAL" source="#ID9" />
                </vertices>
                <triangles count="194" material="Material2">
                    <input offset="0" semantic="VERTEX" source="#ID10" />
                    <input offset="1" semantic="TEXCOORD" source="#ID11" />
                    <p>0 0 1 1 2 2 3 2 4 1 5 0 0 0 9 3 1 1 4 1 10 3 5 0 2 2 1 1 12 4 13 4 4 1 3 2 0 0 2 2 15 5 16 5 3 2 5 0 0 0 18 6 9 3 18 6 0 0 19 7 20 7 5 0 21 6 10 3 21 6 5 0 9 3 24 8 1 1 4 1 25 8 10 3 15 5 2 2 12 4 13 4 3 2 16 5 27 9 28 10 29 11 30 11 31 10 32 9 34 12 0 0 15 5 16 5 5 0 35 12 18 6 24 8 9 3 10 3 25 8 21 6 37 13 38 14 39 15 40 15 41 14 42 13 39 15 44 8 45 16 44 8 39 15 38 14 41 14 40 15 46 8 47 16 46 8 40 15 39 15 45 16 49 17 50 17 47 16 40 15 28 10 52 16 53 18 54 18 55 16 31 10 57 19 58 20 59 16 60 16 61 20 62 19 29 11 28 10 64 21 65 21 31 10 30 11 27 9 29 11 67 22 68 22 30 11 32 9 70 23 34 12 15 5 16 5 35 12 71 23 73 24 0 0 34 12 35 12 5 0 74 24 76 16 77 25 78 17 77 25 76 16 79 20 80 20 81 16 82 25 83 17 82 25 81 16 85 26 38 14 37 13 42 13 41 14 86 26 85 26 44 8 38 14 41 14 46 8 86 26 88 6 89 27 90 20 89 27 88 6 91 28 92 29 93 30 89 27 90 20 94 31 95 25 94 31 90 20 93 30 94 31 93 30 96 32 93 30 90 20 89 27 97 27 98 20 99 30 100 32 99 30 101 31 99 30 98 20 101 31 102 25 101 31 98 20 97 27 99 30 103 29 104 28 105 6 97 27 98 20 97 27 105 6 53 18 52 16 112 8 113 8 55 16 54 18 28 10 53 18 64 21 65 21 54 18 31 10 115 8 57 19 59 16 60 16 62 19 116 8 117 6 58 20 57 19 62 19 61 20 118 6 67 22 29 11 64 21 65 21 30 11 68 22 120 33 121 34 122 35 123 35 124 34 125 33 73 24 34 12 70 23 71 23 35 12 74 24 127 36 128 37 129 38 130 38 131 37 132 36 134 8 135 39 136 40 135 39 134 8 137 41 137 41 134 8 138 6 137 41 138 6 139 42 140 42 141 6 142 41 141 6 143 8 142 41 142 41 143 8 144 39 145 40 144 39 143 8 149 40 150 17 151 43 150 17 149 40 152 16 152 16 149 40 153 8 154 8 155 40 156 16 156 16 155 40 157 17 158 43 157 17 155 40 160 44 128 37 127 36 132 36 131 37 161 44 162 45 93 30 92 29 103 29 99 30 163 45 162 45 96 32 93 30 99 30 100 32 163 45 165 42 94 31 96 32 100 32 101 31 166 42 91 28 92 29 89 27 97 27 103 29 104 28 64 21 53 18 112 8 113 8 54 18 65 21 117 6 57 19 115 8 116 8 62 19 118 6 168 46 169 47 170 48 171 48 172 47 173 46 174 28 175 27 176 49 177 49 178 27 179 28 181 50 73 24 70 23 71 23 74 24 182 50 184 51 127 36 129 38 130 38 132 36 185 51 187 52 188 38 189 53 190 54 188 38 191 55 188 38 190 54 189 53 191 55 188 38 192 51 193 56 189 53 190 54 189 53 193 56 194 57 195 57 196 56 197 53 198 54 197 53 196 56 199 51 200 38 201 55 197 53 198 54 200 38 201 55 200 38 198 54 197 53 200 38 202 52 160 44 127 36 184 51 185 51 132 36 161 44 162 45 92 29 91 28 104 28 103 29 163 45 165 42 96 32 162 45 163 45 100 32 166 42 209 58 210 59 211 60 212 60 213 59 214 58 174 28 215 61 175 27 178 27 216 61 179 28 218 62 181 50 70 23 71 23 182 50 219 62 221 63 73 24 181 50 182 50 74 24 222 63 184 51 129 38 224 64 225 64 130 38 185 51 227 65 187 52 189 53 197 53 202 52 228 65 192 51 188 38 187 52 202 52 200 38 199 51 230 66 194 57 193 56 196 56 195 57 231 66 227 65 189 53 194 57 195 57 197 53 228 65 233 67 215 61 174 28 179 28 216 61 234 67 215 61 236 30 175 27 178 27 237 30 216 61 221 63 181 50 218 62 219 62 182 50 222 63 224 64 129 38 238 53 239 53 130 38 225 64 184 51 224 64 240 68 241 68 225 64 185 51 192 51 187 52 227 65 228 65 202 52 199 51 227 65 194 57 230 66 231 66 195 57 228 65 233 67 236 30 215 61 216 61 237 30 234 67 240 68 224 64 238 53 239 53 225 64 241 68 236 30 243 69 244 70 243 69 236 30 233 67 234 67 237 30 245 69 246 70 245 69 237 30 240 68 238 53 249 71 250 71 239 53 241 68 252 72 243 69 233 67 234 67 245 69 253 72 243 69 255 73 244 70 246 70 256 73 245 69 249 71 258 74 259 75 258 74 249 71 238 53 239 53 250 71 260 74 261 75 260 74 250 71 240 68 249 71 264 76 265 76 250 71 241 68 252 72 255 73 243 69 245 69 256 73 253 72 267 77 268 63 269 62 268 63 267 77 270 78 271 78 272 77 273 63 274 62 273 63 272 77 264 76 249 71 259 75 261 75 250 71 265 76</p>
                </triangles>
                <lines count="133" material="Material3">
                    <input offset="0" semantic="VERTEX" source="#ID10" />
                    <p>6 7 6 8 8 7 11 7 6 11 14 8 6 14 8 17 17 7 11 22 7 23 23 22 26 11 26 6 14 17 6 33 33 14 17 36 7 36 26 22 43 7 23 43 48 43 48 22 51 23 51 22 26 56 56 6 63 14 63 17 66 33 66 6 33 69 69 14 72 17 36 72 36 75 84 51 84 26 87 7 43 87 87 48 106 107 108 107 108 109 51 109 48 110 111 110 106 111 114 56 114 26 56 66 69 63 119 63 119 17 66 69 17 126 126 72 75 72 133 75 133 7 146 84 109 147 147 148 148 146 159 114 159 146 87 133 164 106 107 164 164 108 167 108 167 109 110 106 114 66 69 119 119 126 126 180 180 72 72 183 75 183 186 75 186 133 203 204 203 205 205 206 206 207 207 148 208 147 208 204 110 164 180 119 180 217 72 217 183 220 183 223 226 75 186 226 204 229 229 203 206 203 232 147 232 208 229 208 180 235 217 235 217 220 220 223 226 223 242 226 242 186 229 206 232 229 235 220 242 223 235 247 248 247 248 220 223 251 242 251 254 235 247 254 257 248 247 257 251 262 263 223 263 262 251 266 242 266 254 257 248 263 262 257 266 262</p>
                </lines>
                <lines count="5" material="Material4">
                    <input offset="0" semantic="VERTEX" source="#ID10" />
                    <p>7 75 87 186 164 167 72 220 223 75</p>
                </lines>
            </mesh>
        </geometry>
        <geometry id="ID19">
            <mesh>
                <source id="ID22">
                    <float_array id="ID27" count="36">249.8211 192.8912 -45 249.8211 142.3287 -45.4375 249.8211 142.3287 -45 249.8211 192.8912 -45.4375 249.8211 192.8912 -45.4375 249.8211 192.8912 -45 249.8211 142.3287 -45.4375 249.8211 142.3287 -45 249.8211 192.8912 -45.4375 249.8211 142.3287 -45.4375 249.8211 142.3287 -45 249.8211 192.8912 -45</float_array>
                    <technique_common>
                        <accessor count="12" source="#ID27" stride="3">
                            <param name="X" type="float" />
                            <param name="Y" type="float" />
                            <param name="Z" type="float" />
                        </accessor>
                    </technique_common>
                </source>
                <source id="ID23">
                    <float_array id="ID28" count="36">-1 -0 -0 -1 -0 -0 -1 -0 -0 -1 -0 -0 1 0 0 1 0 0 1 0 0 1 0 0 0 0 0 0 0 0 0 0 0 0 0 0</float_array>
                    <technique_common>
                        <accessor count="12" source="#ID28" stride="3">
                            <param name="X" type="float" />
                            <param name="Y" type="float" />
                            <param name="Z" type="float" />
                        </accessor>
                    </technique_common>
                </source>
                <vertices id="ID24">
                    <input semantic="POSITION" source="#ID22" />
                    <input semantic="NORMAL" source="#ID23" />
                </vertices>
                <triangles count="2" material="Material2">
                    <input offset="0" semantic="VERTEX" source="#ID24" />
                    <p>0 1 2 1 0 3</p>
                </triangles>
                <triangles count="2" material="Material3">
                    <input offset="0" semantic="VERTEX" source="#ID24" />
                    <p>4 5 6 7 6 5</p>
                </triangles>
                <lines count="4" material="Material4">
                    <input offset="0" semantic="VERTEX" source="#ID24" />
                    <p>8 9 9 10 11 10 8 11</p>
                </lines>
            </mesh>
        </geometry>
        <geometry id="ID29">
            <mesh>
                <source id="ID30">
                    <float_array id="ID34" count="27">299.244 167.6099 -45.21875 249.8211 142.3287 -45 249.8211 192.8912 -45 249.8211 192.8912 -45 249.8211 142.3287 -45 299.244 167.6099 -45.21875 249.8211 142.3287 -45 299.244 167.6099 -45.21875 249.8211 192.8912 -45</float_array>
                    <technique_common>
                        <accessor count="9" source="#ID34" stride="3">
                            <param name="X" type="float" />
                            <param name="Y" type="float" />
                            <param name="Z" type="float" />
                        </accessor>
                    </technique_common>
                </source>
                <source id="ID31">
                    <float_array id="ID35" count="27">-0.004426044 0 -0.9999902 -0.004426044 0 -0.9999902 -0.004426044 0 -0.9999902 0.004426044 -0 0.9999902 0.004426044 -0 0.9999902 0.004426044 -0 0.9999902 0 0 0 0 0 0 0 0 0</float_array>
                    <technique_common>
                        <accessor count="9" source="#ID35" stride="3">
                            <param name="X" type="float" />
                            <param name="Y" type="float" />
                            <param name="Z" type="float" />
                        </accessor>
                    </technique_common>
                </source>
                <source id="ID33">
                    <float_array id="ID36" count="6">-24.1114 -31.25222 -17.79109 -31.25222 -20.95124 -37.43015</float_array>
                    <technique_common>
                        <accessor count="3" source="#ID36" stride="2">
                            <param name="S" type="float" />
                            <param name="T" type="float" />
                        </accessor>
                    </technique_common>
                </source>
                <vertices id="ID32">
                    <input semantic="POSITION" source="#ID30" />
                    <input semantic="NORMAL" source="#ID31" />
                </vertices>
                <triangles count="1" material="Material3">
                    <input offset="0" semantic="VERTEX" source="#ID32" />
                    <p>0 1 2</p>
                </triangles>
                <triangles count="1" material="Material2">
                    <input offset="0" semantic="VERTEX" source="#ID32" />
                    <input offset="1" semantic="TEXCOORD" source="#ID33" />
                    <p>3 0 4 1 5 2</p>
                </triangles>
                <lines count="3" material="Material4">
                    <input offset="0" semantic="VERTEX" source="#ID32" />
                    <p>6 7 8 6 8 7</p>
                </lines>
            </mesh>
        </geometry>
        <geometry id="ID37">
            <mesh>
                <source id="ID38">
                    <float_array id="ID42" count="27">348.6668 192.8912 -45.4375 299.244 167.6099 -45.21875 348.6668 142.3287 -45.4375 348.6668 142.3287 -45.4375 299.244 167.6099 -45.21875 348.6668 192.8912 -45.4375 299.244 167.6099 -45.21875 348.6668 192.8912 -45.4375 348.6668 142.3287 -45.4375</float_array>
                    <technique_common>
                        <accessor count="9" source="#ID42" stride="3">
                            <param name="X" type="float" />
                            <param name="Y" type="float" />
                            <param name="Z" type="float" />
                        </accessor>
                    </technique_common>
                </source>
                <source id="ID39">
                    <float_array id="ID43" count="27">0.004426044 -0 0.9999902 0.004426044 -0 0.9999902 0.004426044 -0 0.9999902 -0.004426044 0 -0.9999902 -0.004426044 0 -0.9999902 -0.004426044 0 -0.9999902 0 0 0 0 0 0 0 0 0</float_array>
                    <technique_common>
                        <accessor count="9" source="#ID43" stride="3">
                            <param name="X" type="float" />
                            <param name="Y" type="float" />
                            <param name="Z" type="float" />
                        </accessor>
                    </technique_common>
                </source>
                <source id="ID41">
                    <float_array id="ID44" count="6">24.1114 -43.60807 20.95124 -37.43015 17.79109 -43.60807</float_array>
                    <technique_common>
                        <accessor count="3" source="#ID44" stride="2">
                            <param name="S" type="float" />
                            <param name="T" type="float" />
                        </accessor>
                    </technique_common>
                </source>
                <vertices id="ID40">
                    <input semantic="POSITION" source="#ID38" />
                    <input semantic="NORMAL" source="#ID39" />
                </vertices>
                <triangles count="1" material="Material2">
                    <input offset="0" semantic="VERTEX" source="#ID40" />
                    <input offset="1" semantic="TEXCOORD" source="#ID41" />
                    <p>0 0 1 1 2 2</p>
                </triangles>
                <triangles count="1" material="Material3">
                    <input offset="0" semantic="VERTEX" source="#ID40" />
                    <p>3 4 5</p>
                </triangles>
                <lines count="3" material="Material4">
                    <input offset="0" semantic="VERTEX" source="#ID40" />
                    <p>6 7 6 8 8 7</p>
                </lines>
            </mesh>
        </geometry>
        <geometry id="ID45">
            <mesh>
                <source id="ID46">
                    <float_array id="ID50" count="27">199.8793 -25.3125 -45 149.9375 -50.625 -45 149.9375 0 -45 149.9375 0 -45 149.9375 -50.625 -45 199.8793 -25.3125 -45 199.8793 -25.3125 -45 149.9375 -50.625 -45 149.9375 0 -45</float_array>
                    <technique_common>
                        <accessor count="9" source="#ID50" stride="3">
                            <param name="X" type="float" />
                            <param name="Y" type="float" />
                            <param name="Z" type="float" />
                        </accessor>
                    </technique_common>
                </source>
                <source id="ID47">
                    <float_array id="ID51" count="27">0 0 -1 0 0 -1 0 0 -1 -0 -0 1 -0 -0 1 -0 -0 1 0 0 0 0 0 0 0 0 0</float_array>
                    <technique_common>
                        <accessor count="9" source="#ID51" stride="3">
                            <param name="X" type="float" />
                            <param name="Y" type="float" />
                            <param name="Z" type="float" />
                        </accessor>
                    </technique_common>
                </source>
                <source id="ID49">
                    <float_array id="ID52" count="6">-18.74219 0 -18.74219 -6.328125 -24.98491 -3.164062</float_array>
                    <technique_common>
                        <accessor count="3" source="#ID52" stride="2">
                            <param name="S" type="float" />
                            <param name="T" type="float" />
                        </accessor>
                    </technique_common>
                </source>
                <vertices id="ID48">
                    <input semantic="POSITION" source="#ID46" />
                    <input semantic="NORMAL" source="#ID47" />
                </vertices>
                <triangles count="1" material="Material3">
                    <input offset="0" semantic="VERTEX" source="#ID48" />
                    <p>0 1 2</p>
                </triangles>
                <triangles count="1" material="Material2">
                    <input offset="0" semantic="VERTEX" source="#ID48" />
                    <input offset="1" semantic="TEXCOORD" source="#ID49" />
                    <p>3 0 4 1 5 2</p>
                </triangles>
                <lines count="3" material="Material4">
                    <input offset="0" semantic="VERTEX" source="#ID48" />
                    <p>6 7 8 7 8 6</p>
                </lines>
            </mesh>
        </geometry>
        <geometry id="ID53">
            <mesh>
                <source id="ID54">
                    <float_array id="ID58" count="48">249.8211 -50.625 -45 199.8793 -25.3125 -45 249.8211 0 -45 249.8211 0 -45 199.8793 -25.3125 -45 249.8211 -50.625 -45 249.8211 0 -45 199.8793 -25.3125 -45 249.8211 -50.625 -45 302.6926 -25.3125 -45.09375 249.8211 -50.625 -45 249.8211 0 -45 249.8211 0 -45 249.8211 -50.625 -45 302.6926 -25.3125 -45.09375 302.6926 -25.3125 -45.09375</float_array>
                    <technique_common>
                        <accessor count="16" source="#ID58" stride="3">
                            <param name="X" type="float" />
                            <param name="Y" type="float" />
                            <param name="Z" type="float" />
                        </accessor>
                    </technique_common>
                </source>
                <source id="ID55">
                    <float_array id="ID59" count="48">0 0 -1 0 0 -1 0 0 -1 -0 -0 1 -0 -0 1 -0 -0 1 0 0 0 0 0 0 0 0 0 -0.001773163 0 -0.9999984 -0.001773163 0 -0.9999984 -0.001773163 0 -0.9999984 0.001773163 -0 0.9999984 0.001773163 -0 0.9999984 0.001773163 -0 0.9999984 0 0 0</float_array>
                    <technique_common>
                        <accessor count="16" source="#ID59" stride="3">
                            <param name="X" type="float" />
                            <param name="Y" type="float" />
                            <param name="Z" type="float" />
                        </accessor>
                    </technique_common>
                </source>
                <source id="ID57">
                    <float_array id="ID60" count="12">-31.22763 0 -24.98491 -3.164062 -31.22763 -6.328125 0 -31.23756 6.328125 -31.23756 3.164063 -37.84651</float_array>
                    <technique_common>
                        <accessor count="6" source="#ID60" stride="2">
                            <param name="S" type="float" />
                            <param name="T" type="float" />
                        </accessor>
                    </technique_common>
                </source>
                <vertices id="ID56">
                    <input semantic="POSITION" source="#ID54" />
                    <input semantic="NORMAL" source="#ID55" />
                </vertices>
                <triangles count="2" material="Material3">
                    <input offset="0" semantic="VERTEX" source="#ID56" />
                    <p>0 1 2 9 10 11</p>
                </triangles>
                <triangles count="2" material="Material2">
                    <input offset="0" semantic="VERTEX" source="#ID56" />
                    <input offset="1" semantic="TEXCOORD" source="#ID57" />
                    <p>3 0 4 1 5 2 12 3 13 4 14 5</p>
                </triangles>
                <lines count="5" material="Material4">
                    <input offset="0" semantic="VERTEX" source="#ID56" />
                    <p>6 7 6 8 7 8 8 15 6 15</p>
                </lines>
            </mesh>
        </geometry>
        <geometry id="ID61">
            <mesh>
                <source id="ID62">
                    <float_array id="ID66" count="27">355.5642 0 -45.1875 302.6926 -25.3125 -45.09375 355.5642 -50.625 -45.1875 355.5642 -50.625 -45.1875 302.6926 -25.3125 -45.09375 355.5642 0 -45.1875 302.6926 -25.3125 -45.09375 355.5642 0 -45.1875 355.5642 -50.625 -45.1875</float_array>
                    <technique_common>
                        <accessor count="9" source="#ID66" stride="3">
                            <param name="X" type="float" />
                            <param name="Y" type="float" />
                            <param name="Z" type="float" />
                        </accessor>
                    </technique_common>
                </source>
                <source id="ID63">
                    <float_array id="ID67" count="27">0.001773163 -0 0.9999984 0.001773163 -0 0.9999984 0.001773163 -0 0.9999984 -0.001773163 0 -0.9999984 -0.001773163 0 -0.9999984 -0.001773163 0 -0.9999984 0 0 0 0 0 0 0 0 0</float_array>
                    <technique_common>
                        <accessor count="9" source="#ID67" stride="3">
                            <param name="X" type="float" />
                            <param name="Y" type="float" />
                            <param name="Z" type="float" />
                        </accessor>
                    </technique_common>
                </source>
                <source id="ID65">
                    <float_array id="ID68" count="6">0 -44.45547 -3.164063 -37.84651 -6.328125 -44.45547</float_array>
                    <technique_common>
                        <accessor count="3" source="#ID68" stride="2">
                            <param name="S" type="float" />
                            <param name="T" type="float" />
                        </accessor>
                    </technique_common>
                </source>
                <vertices id="ID64">
                    <input semantic="POSITION" source="#ID62" />
                    <input semantic="NORMAL" source="#ID63" />
                </vertices>
                <triangles count="1" material="Material2">
                    <input offset="0" semantic="VERTEX" source="#ID64" />
                    <input offset="1" semantic="TEXCOORD" source="#ID65" />
                    <p>0 0 1 1 2 2</p>
                </triangles>
                <triangles count="1" material="Material3">
                    <input offset="0" semantic="VERTEX" source="#ID64" />
                    <p>3 4 5</p>
                </triangles>
                <lines count="3" material="Material4">
                    <input offset="0" semantic="VERTEX" source="#ID64" />
                    <p>6 7 6 8 7 8</p>
                </lines>
            </mesh>
        </geometry>
    </library_geometries>
    <library_materials>
        <material id="ID3" name="Metal_Rough">
            <instance_effect url="#ID4" />
        </material>
        <material id="ID12" name="edge_color000255">
            <instance_effect url="#ID13" />
        </material>
        <material id="ID14" name="edge_color1531571600">
            <instance_effect url="#ID15" />
        </material>
        <material id="ID21" name="material">
            <instance_effect url="#ID20" />
        </material>
        <material id="ID26" name="material_0">
            <instance_effect url="#ID25" />
        </material>
    </library_materials>
    <library_effects>
        <effect id="ID4">
            <profile_COMMON>
                <newparam sid="ID6">
                    <surface type="2D">
                        <init_from>ID5</init_from>
                    </surface>
                </newparam>
                <newparam sid="ID7">
                    <sampler2D>
                        <source>ID6</source>
                    </sampler2D>
                </newparam>
                <technique sid="COMMON">
                    <lambert>
                        <diffuse>
                            <texture texture="ID7" texcoord="UVSET0" />
                        </diffuse>
                    </lambert>
                </technique>
            </profile_COMMON>
        </effect>
        <effect id="ID13">
            <profile_COMMON>
                <technique sid="COMMON">
                    <constant>
                        <transparent opaque="A_ONE">
                            <color>0 0 0 1</color>
                        </transparent>
                        <transparency>
                            <float>1</float>
                        </transparency>
                    </constant>
                </technique>
            </profile_COMMON>
        </effect>
        <effect id="ID15">
            <profile_COMMON>
                <technique sid="COMMON">
                    <constant>
                        <transparent opaque="A_ONE">
                            <color>0.6 0.6156863 0.627451 0</color>
                        </transparent>
                        <transparency>
                            <float>1</float>
                        </transparency>
                    </constant>
                </technique>
            </profile_COMMON>
        </effect>
        <effect id="ID20">
            <profile_COMMON>
                <technique sid="COMMON">
                    <lambert>
                        <diffuse>
                            <color>1 1 1 1</color>
                        </diffuse>
                    </lambert>
                </technique>
            </profile_COMMON>
        </effect>
        <effect id="ID25">
            <profile_COMMON>
                <technique sid="COMMON">
                    <lambert>
                        <diffuse>
                            <color>0.6705882 0.6901961 0.8 1</color>
                        </diffuse>
                    </lambert>
                </technique>
            </profile_COMMON>
        </effect>
    </library_effects>
    <library_images>
        <image id="ID5">
            <init_from>model/Metal_Rough.jpg</init_from>
        </image>
    </library_images>
    <scene>
        <instance_visual_scene url="#ID1" />
    </scene>
</COLLADA>
